^C:\USERS\FORES_000\DOCUMENTS\VISUAL STUDIO 2013\PROJECTS\DRACENGINE\DRACENGINE\RESOURCE.CPP
/c /I"C:\Users\fores_000\Documents\Visual Studio 2013\Projects\dracengine\include" /Zi /W4 /WX- /sdl /O2 /Oi /Oy- /GL /D _MBCS /Gm- /EHsc /MDd /GS /Gy /fp:fast /Zc:wchar_t /Zc:forScope /Fo"RELEASE\\" /Fd"RELEASE\VC120.PDB" /Gd /TP /analyze- C:\USERS\FORES_000\DOCUMENTS\VISUAL STUDIO 2013\PROJECTS\DRACENGINE\DRACENGINE\RESOURCE.CPP
^C:\USERS\FORES_000\DOCUMENTS\VISUAL STUDIO 2013\PROJECTS\DRACENGINE\DRACENGINE\SINGLERESOURCE.CPP
/c /I"C:\Users\fores_000\Documents\Visual Studio 2013\Projects\dracengine\include" /Zi /W4 /WX- /sdl /O2 /Oi /Oy- /GL /D _MBCS /Gm- /EHsc /MDd /GS /Gy /fp:fast /Zc:wchar_t /Zc:forScope /Fo"RELEASE\\" /Fd"RELEASE\VC120.PDB" /Gd /TP /analyze- C:\USERS\FORES_000\DOCUMENTS\VISUAL STUDIO 2013\PROJECTS\DRACENGINE\DRACENGINE\SINGLERESOURCE.CPP
^C:\USERS\FORES_000\DOCUMENTS\VISUAL STUDIO 2013\PROJECTS\DRACENGINE\DRACENGINE\TEXTFILE.CPP
/c /I"C:\Users\fores_000\Documents\Visual Studio 2013\Projects\dracengine\include" /Zi /W4 /WX- /sdl /O2 /Oi /Oy- /GL /D _MBCS /Gm- /EHsc /MDd /GS /Gy /fp:fast /Zc:wchar_t /Zc:forScope /Fo"RELEASE\\" /Fd"RELEASE\VC120.PDB" /Gd /TP /analyze- C:\USERS\FORES_000\DOCUMENTS\VISUAL STUDIO 2013\PROJECTS\DRACENGINE\DRACENGINE\TEXTFILE.CPP
^C:\USERS\FORES_000\DESKTOP\DEVELOPMENT\DRACENGINE\DRACENGINE\TEXTFILE.CPP
/c /I"C:\Users\fores_000\Documents\Visual Studio 2013\Projects\dracengine\include" /Zi /W4 /WX- /sdl /O2 /Oi /Oy- /GL /D _MBCS /Gm- /EHsc /MDd /GS /Gy /fp:fast /Zc:wchar_t /Zc:forScope /Fo"RELEASE\\" /Fd"RELEASE\VC120.PDB" /Gd /TP /analyze- C:\USERS\FORES_000\DESKTOP\DEVELOPMENT\DRACENGINE\DRACENGINE\TEXTFILE.CPP
^C:\USERS\FORES_000\DOCUMENTS\VISUAL STUDIO 2013\PROJECTS\DRACENGINE\DRACENGINE\BASEGAME.CPP
/c /I"C:\Users\fores_000\Documents\Visual Studio 2013\Projects\dracengine\include" /Zi /W4 /WX- /sdl /O2 /Oi /Oy- /GL /D _MBCS /Gm- /EHsc /MDd /GS /Gy /fp:fast /Zc:wchar_t /Zc:forScope /Fo"RELEASE\\" /Fd"RELEASE\VC120.PDB" /Gd /TP /analyze- C:\USERS\FORES_000\DOCUMENTS\VISUAL STUDIO 2013\PROJECTS\DRACENGINE\DRACENGINE\BASEGAME.CPP
^C:\USERS\FORES_000\DOCUMENTS\VISUAL STUDIO 2013\PROJECTS\DRACENGINE\DRACENGINE\COLOR.CPP
/c /I"C:\Users\fores_000\Documents\Visual Studio 2013\Projects\dracengine\include" /Zi /W4 /WX- /sdl /O2 /Oi /Oy- /GL /D _MBCS /Gm- /EHsc /MDd /GS /Gy /fp:fast /Zc:wchar_t /Zc:forScope /Fo"RELEASE\\" /Fd"RELEASE\VC120.PDB" /Gd /TP /analyze- C:\USERS\FORES_000\DOCUMENTS\VISUAL STUDIO 2013\PROJECTS\DRACENGINE\DRACENGINE\COLOR.CPP
^C:\USERS\FORES_000\DOCUMENTS\VISUAL STUDIO 2013\PROJECTS\DRACENGINE\DRACENGINE\COMPOSITERESOURCE.CPP
/c /I"C:\Users\fores_000\Documents\Visual Studio 2013\Projects\dracengine\include" /Zi /W4 /WX- /sdl /O2 /Oi /Oy- /GL /D _MBCS /Gm- /EHsc /MDd /GS /Gy /fp:fast /Zc:wchar_t /Zc:forScope /Fo"RELEASE\\" /Fd"RELEASE\VC120.PDB" /Gd /TP /analyze- C:\USERS\FORES_000\DOCUMENTS\VISUAL STUDIO 2013\PROJECTS\DRACENGINE\DRACENGINE\COMPOSITERESOURCE.CPP
^C:\USERS\FORES_000\DOCUMENTS\VISUAL STUDIO 2013\PROJECTS\DRACENGINE\DRACENGINE\CORE.CPP
/c /I"C:\Users\fores_000\Documents\Visual Studio 2013\Projects\dracengine\include" /Zi /W4 /WX- /sdl /O2 /Oi /Oy- /GL /D _MBCS /Gm- /EHsc /MDd /GS /Gy /fp:fast /Zc:wchar_t /Zc:forScope /Fo"RELEASE\\" /Fd"RELEASE\VC120.PDB" /Gd /TP /analyze- C:\USERS\FORES_000\DOCUMENTS\VISUAL STUDIO 2013\PROJECTS\DRACENGINE\DRACENGINE\CORE.CPP
^C:\USERS\FORES_000\DOCUMENTS\VISUAL STUDIO 2013\PROJECTS\DRACENGINE\DRACENGINE\DMATH.CPP
/c /I"C:\Users\fores_000\Documents\Visual Studio 2013\Projects\dracengine\include" /Zi /W4 /WX- /sdl /O2 /Oi /Oy- /GL /D _MBCS /Gm- /EHsc /MDd /GS /Gy /fp:fast /Zc:wchar_t /Zc:forScope /Fo"RELEASE\\" /Fd"RELEASE\VC120.PDB" /Gd /TP /analyze- C:\USERS\FORES_000\DOCUMENTS\VISUAL STUDIO 2013\PROJECTS\DRACENGINE\DRACENGINE\DMATH.CPP
^C:\USERS\FORES_000\DOCUMENTS\VISUAL STUDIO 2013\PROJECTS\DRACENGINE\DRACENGINE\ECONFIG.CPP
/c /I"C:\Users\fores_000\Documents\Visual Studio 2013\Projects\dracengine\include" /Zi /W4 /WX- /sdl /O2 /Oi /Oy- /GL /D _MBCS /Gm- /EHsc /MDd /GS /Gy /fp:fast /Zc:wchar_t /Zc:forScope /Fo"RELEASE\\" /Fd"RELEASE\VC120.PDB" /Gd /TP /analyze- C:\USERS\FORES_000\DOCUMENTS\VISUAL STUDIO 2013\PROJECTS\DRACENGINE\DRACENGINE\ECONFIG.CPP
^C:\USERS\FORES_000\DOCUMENTS\VISUAL STUDIO 2013\PROJECTS\DRACENGINE\DRACENGINE\ENGINE.CPP
/c /I"C:\Users\fores_000\Documents\Visual Studio 2013\Projects\dracengine\include" /Zi /W4 /WX- /sdl /O2 /Oi /Oy- /GL /D _MBCS /Gm- /EHsc /MDd /GS /Gy /fp:fast /Zc:wchar_t /Zc:forScope /Fo"RELEASE\\" /Fd"RELEASE\VC120.PDB" /Gd /TP /analyze- C:\USERS\FORES_000\DOCUMENTS\VISUAL STUDIO 2013\PROJECTS\DRACENGINE\DRACENGINE\ENGINE.CPP
^C:\USERS\FORES_000\DOCUMENTS\VISUAL STUDIO 2013\PROJECTS\DRACENGINE\DRACENGINE\GAMEMANAGER.CPP
/c /I"C:\Users\fores_000\Documents\Visual Studio 2013\Projects\dracengine\include" /Zi /W4 /WX- /sdl /O2 /Oi /Oy- /GL /D _MBCS /Gm- /EHsc /MDd /GS /Gy /fp:fast /Zc:wchar_t /Zc:forScope /Fo"RELEASE\\" /Fd"RELEASE\VC120.PDB" /Gd /TP /analyze- C:\USERS\FORES_000\DOCUMENTS\VISUAL STUDIO 2013\PROJECTS\DRACENGINE\DRACENGINE\GAMEMANAGER.CPP
^C:\USERS\FORES_000\DOCUMENTS\VISUAL STUDIO 2013\PROJECTS\DRACENGINE\DRACENGINE\INDEXBUFFER.CPP
/c /I"C:\Users\fores_000\Documents\Visual Studio 2013\Projects\dracengine\include" /Zi /W4 /WX- /sdl /O2 /Oi /Oy- /GL /D _MBCS /Gm- /EHsc /MDd /GS /Gy /fp:fast /Zc:wchar_t /Zc:forScope /Fo"RELEASE\\" /Fd"RELEASE\VC120.PDB" /Gd /TP /analyze- C:\USERS\FORES_000\DOCUMENTS\VISUAL STUDIO 2013\PROJECTS\DRACENGINE\DRACENGINE\INDEXBUFFER.CPP
^C:\USERS\FORES_000\DOCUMENTS\VISUAL STUDIO 2013\PROJECTS\DRACENGINE\DRACENGINE\INPUT.CPP
/c /I"C:\Users\fores_000\Documents\Visual Studio 2013\Projects\dracengine\include" /Zi /W4 /WX- /sdl /O2 /Oi /Oy- /GL /D _MBCS /Gm- /EHsc /MDd /GS /Gy /fp:fast /Zc:wchar_t /Zc:forScope /Fo"RELEASE\\" /Fd"RELEASE\VC120.PDB" /Gd /TP /analyze- C:\USERS\FORES_000\DOCUMENTS\VISUAL STUDIO 2013\PROJECTS\DRACENGINE\DRACENGINE\INPUT.CPP
^C:\USERS\FORES_000\DOCUMENTS\VISUAL STUDIO 2013\PROJECTS\DRACENGINE\DRACENGINE\OBJINDEX.CPP
/c /I"C:\Users\fores_000\Documents\Visual Studio 2013\Projects\dracengine\include" /Zi /W4 /WX- /sdl /O2 /Oi /Oy- /GL /D _MBCS /Gm- /EHsc /MDd /GS /Gy /fp:fast /Zc:wchar_t /Zc:forScope /Fo"RELEASE\\" /Fd"RELEASE\VC120.PDB" /Gd /TP /analyze- C:\USERS\FORES_000\DOCUMENTS\VISUAL STUDIO 2013\PROJECTS\DRACENGINE\DRACENGINE\OBJINDEX.CPP
^C:\USERS\FORES_000\DOCUMENTS\VISUAL STUDIO 2013\PROJECTS\DRACENGINE\DRACENGINE\OBJRESOURCE.CPP
/c /I"C:\Users\fores_000\Documents\Visual Studio 2013\Projects\dracengine\include" /Zi /W4 /WX- /sdl /O2 /Oi /Oy- /GL /D _MBCS /Gm- /EHsc /MDd /GS /Gy /fp:fast /Zc:wchar_t /Zc:forScope /Fo"RELEASE\\" /Fd"RELEASE\VC120.PDB" /Gd /TP /analyze- C:\USERS\FORES_000\DOCUMENTS\VISUAL STUDIO 2013\PROJECTS\DRACENGINE\DRACENGINE\OBJRESOURCE.CPP
^C:\USERS\FORES_000\DOCUMENTS\VISUAL STUDIO 2013\PROJECTS\DRACENGINE\DRACENGINE\RESOURCEMANAGER.CPP
/c /I"C:\Users\fores_000\Documents\Visual Studio 2013\Projects\dracengine\include" /Zi /W4 /WX- /sdl /O2 /Oi /Oy- /GL /D _MBCS /Gm- /EHsc /MDd /GS /Gy /fp:fast /Zc:wchar_t /Zc:forScope /Fo"RELEASE\\" /Fd"RELEASE\VC120.PDB" /Gd /TP /analyze- C:\USERS\FORES_000\DOCUMENTS\VISUAL STUDIO 2013\PROJECTS\DRACENGINE\DRACENGINE\RESOURCEMANAGER.CPP
^C:\USERS\FORES_000\DOCUMENTS\VISUAL STUDIO 2013\PROJECTS\DRACENGINE\DRACENGINE\SCRIPT.CPP
/c /I"C:\Users\fores_000\Documents\Visual Studio 2013\Projects\dracengine\include" /Zi /W4 /WX- /sdl /O2 /Oi /Oy- /GL /D _MBCS /Gm- /EHsc /MDd /GS /Gy /fp:fast /Zc:wchar_t /Zc:forScope /Fo"RELEASE\\" /Fd"RELEASE\VC120.PDB" /Gd /TP /analyze- C:\USERS\FORES_000\DOCUMENTS\VISUAL STUDIO 2013\PROJECTS\DRACENGINE\DRACENGINE\SCRIPT.CPP
^C:\USERS\FORES_000\DOCUMENTS\VISUAL STUDIO 2013\PROJECTS\DRACENGINE\DRACENGINE\SCRIPTFUNCTION.CPP
/c /I"C:\Users\fores_000\Documents\Visual Studio 2013\Projects\dracengine\include" /Zi /W4 /WX- /sdl /O2 /Oi /Oy- /GL /D _MBCS /Gm- /EHsc /MDd /GS /Gy /fp:fast /Zc:wchar_t /Zc:forScope /Fo"RELEASE\\" /Fd"RELEASE\VC120.PDB" /Gd /TP /analyze- C:\USERS\FORES_000\DOCUMENTS\VISUAL STUDIO 2013\PROJECTS\DRACENGINE\DRACENGINE\SCRIPTFUNCTION.CPP
^C:\USERS\FORES_000\DOCUMENTS\VISUAL STUDIO 2013\PROJECTS\DRACENGINE\DRACENGINE\SCRIPTMODULE.CPP
/c /I"C:\Users\fores_000\Documents\Visual Studio 2013\Projects\dracengine\include" /Zi /W4 /WX- /sdl /O2 /Oi /Oy- /GL /D _MBCS /Gm- /EHsc /MDd /GS /Gy /fp:fast /Zc:wchar_t /Zc:forScope /Fo"RELEASE\\" /Fd"RELEASE\VC120.PDB" /Gd /TP /analyze- C:\USERS\FORES_000\DOCUMENTS\VISUAL STUDIO 2013\PROJECTS\DRACENGINE\DRACENGINE\SCRIPTMODULE.CPP
^C:\USERS\FORES_000\DOCUMENTS\VISUAL STUDIO 2013\PROJECTS\DRACENGINE\DRACENGINE\SCRIPTRESOURCE.CPP
/c /I"C:\Users\fores_000\Documents\Visual Studio 2013\Projects\dracengine\include" /Zi /W4 /WX- /sdl /O2 /Oi /Oy- /GL /D _MBCS /Gm- /EHsc /MDd /GS /Gy /fp:fast /Zc:wchar_t /Zc:forScope /Fo"RELEASE\\" /Fd"RELEASE\VC120.PDB" /Gd /TP /analyze- C:\USERS\FORES_000\DOCUMENTS\VISUAL STUDIO 2013\PROJECTS\DRACENGINE\DRACENGINE\SCRIPTRESOURCE.CPP
^C:\USERS\FORES_000\DOCUMENTS\VISUAL STUDIO 2013\PROJECTS\DRACENGINE\DRACENGINE\SDLSYS.CPP
/c /I"C:\Users\fores_000\Documents\Visual Studio 2013\Projects\dracengine\include" /Zi /W4 /WX- /sdl /O2 /Oi /Oy- /GL /D _MBCS /Gm- /EHsc /MDd /GS /Gy /fp:fast /Zc:wchar_t /Zc:forScope /Fo"RELEASE\\" /Fd"RELEASE\VC120.PDB" /Gd /TP /analyze- C:\USERS\FORES_000\DOCUMENTS\VISUAL STUDIO 2013\PROJECTS\DRACENGINE\DRACENGINE\SDLSYS.CPP
^C:\USERS\FORES_000\DOCUMENTS\VISUAL STUDIO 2013\PROJECTS\DRACENGINE\DRACENGINE\SHADERRESOURCE.CPP
/c /I"C:\Users\fores_000\Documents\Visual Studio 2013\Projects\dracengine\include" /Zi /W4 /WX- /sdl /O2 /Oi /Oy- /GL /D _MBCS /Gm- /EHsc /MDd /GS /Gy /fp:fast /Zc:wchar_t /Zc:forScope /Fo"RELEASE\\" /Fd"RELEASE\VC120.PDB" /Gd /TP /analyze- C:\USERS\FORES_000\DOCUMENTS\VISUAL STUDIO 2013\PROJECTS\DRACENGINE\DRACENGINE\SHADERRESOURCE.CPP
^C:\USERS\FORES_000\DOCUMENTS\VISUAL STUDIO 2013\PROJECTS\DRACENGINE\DRACENGINE\SIMULATION.CPP
/c /I"C:\Users\fores_000\Documents\Visual Studio 2013\Projects\dracengine\include" /Zi /W4 /WX- /sdl /O2 /Oi /Oy- /GL /D _MBCS /Gm- /EHsc /MDd /GS /Gy /fp:fast /Zc:wchar_t /Zc:forScope /Fo"RELEASE\\" /Fd"RELEASE\VC120.PDB" /Gd /TP /analyze- C:\USERS\FORES_000\DOCUMENTS\VISUAL STUDIO 2013\PROJECTS\DRACENGINE\DRACENGINE\SIMULATION.CPP
^C:\USERS\FORES_000\DOCUMENTS\VISUAL STUDIO 2013\PROJECTS\DRACENGINE\DRACENGINE\SINGLENODE.CPP
/c /I"C:\Users\fores_000\Documents\Visual Studio 2013\Projects\dracengine\include" /Zi /W4 /WX- /sdl /O2 /Oi /Oy- /GL /D _MBCS /Gm- /EHsc /MDd /GS /Gy /fp:fast /Zc:wchar_t /Zc:forScope /Fo"RELEASE\\" /Fd"RELEASE\VC120.PDB" /Gd /TP /analyze- C:\USERS\FORES_000\DOCUMENTS\VISUAL STUDIO 2013\PROJECTS\DRACENGINE\DRACENGINE\SINGLENODE.CPP
^C:\USERS\FORES_000\DOCUMENTS\VISUAL STUDIO 2013\PROJECTS\DRACENGINE\DRACENGINE\SUTILS.CPP
/c /I"C:\Users\fores_000\Documents\Visual Studio 2013\Projects\dracengine\include" /Zi /W4 /WX- /sdl /O2 /Oi /Oy- /GL /D _MBCS /Gm- /EHsc /MDd /GS /Gy /fp:fast /Zc:wchar_t /Zc:forScope /Fo"RELEASE\\" /Fd"RELEASE\VC120.PDB" /Gd /TP /analyze- C:\USERS\FORES_000\DOCUMENTS\VISUAL STUDIO 2013\PROJECTS\DRACENGINE\DRACENGINE\SUTILS.CPP
^C:\USERS\FORES_000\DOCUMENTS\VISUAL STUDIO 2013\PROJECTS\DRACENGINE\DRACENGINE\TEXTURE.CPP
/c /I"C:\Users\fores_000\Documents\Visual Studio 2013\Projects\dracengine\include" /Zi /W4 /WX- /sdl /O2 /Oi /Oy- /GL /D _MBCS /Gm- /EHsc /MDd /GS /Gy /fp:fast /Zc:wchar_t /Zc:forScope /Fo"RELEASE\\" /Fd"RELEASE\VC120.PDB" /Gd /TP /analyze- C:\USERS\FORES_000\DOCUMENTS\VISUAL STUDIO 2013\PROJECTS\DRACENGINE\DRACENGINE\TEXTURE.CPP
^C:\USERS\FORES_000\DOCUMENTS\VISUAL STUDIO 2013\PROJECTS\DRACENGINE\DRACENGINE\TEXTURERESOURCE.CPP
/c /I"C:\Users\fores_000\Documents\Visual Studio 2013\Projects\dracengine\include" /Zi /W4 /WX- /sdl /O2 /Oi /Oy- /GL /D _MBCS /Gm- /EHsc /MDd /GS /Gy /fp:fast /Zc:wchar_t /Zc:forScope /Fo"RELEASE\\" /Fd"RELEASE\VC120.PDB" /Gd /TP /analyze- C:\USERS\FORES_000\DOCUMENTS\VISUAL STUDIO 2013\PROJECTS\DRACENGINE\DRACENGINE\TEXTURERESOURCE.CPP
^C:\USERS\FORES_000\DOCUMENTS\VISUAL STUDIO 2013\PROJECTS\DRACENGINE\DRACENGINE\VEC3.CPP
/c /I"C:\Users\fores_000\Documents\Visual Studio 2013\Projects\dracengine\include" /Zi /W4 /WX- /sdl /O2 /Oi /Oy- /GL /D _MBCS /Gm- /EHsc /MDd /GS /Gy /fp:fast /Zc:wchar_t /Zc:forScope /Fo"RELEASE\\" /Fd"RELEASE\VC120.PDB" /Gd /TP /analyze- C:\USERS\FORES_000\DOCUMENTS\VISUAL STUDIO 2013\PROJECTS\DRACENGINE\DRACENGINE\VEC3.CPP
^C:\USERS\FORES_000\DOCUMENTS\VISUAL STUDIO 2013\PROJECTS\DRACENGINE\DRACENGINE\VEC2.CPP
/c /I"C:\Users\fores_000\Documents\Visual Studio 2013\Projects\dracengine\include" /Zi /W4 /WX- /sdl /O2 /Oi /Oy- /GL /D _MBCS /Gm- /EHsc /MDd /GS /Gy /fp:fast /Zc:wchar_t /Zc:forScope /Fo"RELEASE\\" /Fd"RELEASE\VC120.PDB" /Gd /TP /analyze- C:\USERS\FORES_000\DOCUMENTS\VISUAL STUDIO 2013\PROJECTS\DRACENGINE\DRACENGINE\VEC2.CPP
^C:\USERS\FORES_000\DOCUMENTS\VISUAL STUDIO 2013\PROJECTS\DRACENGINE\DRACENGINE\SUBSYSTEM.CPP
/c /I"C:\Users\fores_000\Documents\Visual Studio 2013\Projects\dracengine\include" /Zi /W4 /WX- /sdl /O2 /Oi /Oy- /GL /D _MBCS /Gm- /EHsc /MDd /GS /Gy /fp:fast /Zc:wchar_t /Zc:forScope /Fo"RELEASE\\" /Fd"RELEASE\VC120.PDB" /Gd /TP /analyze- C:\USERS\FORES_000\DOCUMENTS\VISUAL STUDIO 2013\PROJECTS\DRACENGINE\DRACENGINE\SUBSYSTEM.CPP
^C:\USERS\FORES_000\DOCUMENTS\VISUAL STUDIO 2013\PROJECTS\DRACENGINE\DRACENGINE\TEXTRESOURCE.CPP
/c /I"C:\Users\fores_000\Documents\Visual Studio 2013\Projects\dracengine\include" /Zi /W4 /WX- /sdl /O2 /Oi /Oy- /GL /D _MBCS /Gm- /EHsc /MDd /GS /Gy /fp:fast /Zc:wchar_t /Zc:forScope /Fo"RELEASE\\" /Fd"RELEASE\VC120.PDB" /Gd /TP /analyze- C:\USERS\FORES_000\DOCUMENTS\VISUAL STUDIO 2013\PROJECTS\DRACENGINE\DRACENGINE\TEXTRESOURCE.CPP
^C:\USERS\FORES_000\DOCUMENTS\VISUAL STUDIO 2013\PROJECTS\DRACENGINE\DRACENGINE\VERTEX3.CPP
/c /I"C:\Users\fores_000\Documents\Visual Studio 2013\Projects\dracengine\include" /Zi /W4 /WX- /sdl /O2 /Oi /Oy- /GL /D _MBCS /Gm- /EHsc /MDd /GS /Gy /fp:fast /Zc:wchar_t /Zc:forScope /Fo"RELEASE\\" /Fd"RELEASE\VC120.PDB" /Gd /TP /analyze- C:\USERS\FORES_000\DOCUMENTS\VISUAL STUDIO 2013\PROJECTS\DRACENGINE\DRACENGINE\VERTEX3.CPP
^C:\USERS\FORES_000\DOCUMENTS\VISUAL STUDIO 2013\PROJECTS\DRACENGINE\DRACENGINE\VERTEXARRAY.CPP
/c /I"C:\Users\fores_000\Documents\Visual Studio 2013\Projects\dracengine\include" /Zi /W4 /WX- /sdl /O2 /Oi /Oy- /GL /D _MBCS /Gm- /EHsc /MDd /GS /Gy /fp:fast /Zc:wchar_t /Zc:forScope /Fo"RELEASE\\" /Fd"RELEASE\VC120.PDB" /Gd /TP /analyze- C:\USERS\FORES_000\DOCUMENTS\VISUAL STUDIO 2013\PROJECTS\DRACENGINE\DRACENGINE\VERTEXARRAY.CPP
^C:\USERS\FORES_000\DOCUMENTS\VISUAL STUDIO 2013\PROJECTS\DRACENGINE\DRACENGINE\VERTEXATTRIB.CPP
/c /I"C:\Users\fores_000\Documents\Visual Studio 2013\Projects\dracengine\include" /Zi /W4 /WX- /sdl /O2 /Oi /Oy- /GL /D _MBCS /Gm- /EHsc /MDd /GS /Gy /fp:fast /Zc:wchar_t /Zc:forScope /Fo"RELEASE\\" /Fd"RELEASE\VC120.PDB" /Gd /TP /analyze- C:\USERS\FORES_000\DOCUMENTS\VISUAL STUDIO 2013\PROJECTS\DRACENGINE\DRACENGINE\VERTEXATTRIB.CPP
^C:\USERS\FORES_000\DOCUMENTS\VISUAL STUDIO 2013\PROJECTS\DRACENGINE\DRACENGINE\VERTEXBUFFER.CPP
/c /I"C:\Users\fores_000\Documents\Visual Studio 2013\Projects\dracengine\include" /Zi /W4 /WX- /sdl /O2 /Oi /Oy- /GL /D _MBCS /Gm- /EHsc /MDd /GS /Gy /fp:fast /Zc:wchar_t /Zc:forScope /Fo"RELEASE\\" /Fd"RELEASE\VC120.PDB" /Gd /TP /analyze- C:\USERS\FORES_000\DOCUMENTS\VISUAL STUDIO 2013\PROJECTS\DRACENGINE\DRACENGINE\VERTEXBUFFER.CPP
^C:\USERS\FORES_000\DOCUMENTS\VISUAL STUDIO 2013\PROJECTS\DRACENGINE\DRACENGINE\WINDOW.CPP
/c /I"C:\Users\fores_000\Documents\Visual Studio 2013\Projects\dracengine\include" /Zi /W4 /WX- /sdl /O2 /Oi /Oy- /GL /D _MBCS /Gm- /EHsc /MDd /GS /Gy /fp:fast /Zc:wchar_t /Zc:forScope /Fo"RELEASE\\" /Fd"RELEASE\VC120.PDB" /Gd /TP /analyze- C:\USERS\FORES_000\DOCUMENTS\VISUAL STUDIO 2013\PROJECTS\DRACENGINE\DRACENGINE\WINDOW.CPP
^C:\USERS\FORES_000\DOCUMENTS\VISUAL STUDIO 2013\PROJECTS\DRACENGINE\DRACENGINE\GAMECOMPONENT.CPP
/c /I"C:\Users\fores_000\Documents\Visual Studio 2013\Projects\dracengine\include" /Zi /W4 /WX- /sdl /O2 /Oi /Oy- /GL /D _MBCS /Gm- /EHsc /MDd /GS /Gy /fp:fast /Zc:wchar_t /Zc:forScope /Fo"RELEASE\\" /Fd"RELEASE\VC120.PDB" /Gd /TP /analyze- C:\USERS\FORES_000\DOCUMENTS\VISUAL STUDIO 2013\PROJECTS\DRACENGINE\DRACENGINE\GAMECOMPONENT.CPP
^C:\USERS\FORES_000\DOCUMENTS\VISUAL STUDIO 2013\PROJECTS\DRACENGINE\DRACENGINE\SCENE3D.CPP
/c /I"C:\Users\fores_000\Documents\Visual Studio 2013\Projects\dracengine\include" /Zi /W4 /WX- /sdl /O2 /Oi /Oy- /GL /D _MBCS /Gm- /EHsc /MDd /GS /Gy /fp:fast /Zc:wchar_t /Zc:forScope /Fo"RELEASE\\" /Fd"RELEASE\VC120.PDB" /Gd /TP /analyze- C:\USERS\FORES_000\DOCUMENTS\VISUAL STUDIO 2013\PROJECTS\DRACENGINE\DRACENGINE\SCENE3D.CPP
^C:\USERS\FORES_000\DOCUMENTS\VISUAL STUDIO 2013\PROJECTS\DRACENGINE\DRACENGINE\GAMEOBJECT.CPP
/c /I"C:\Users\fores_000\Documents\Visual Studio 2013\Projects\dracengine\include" /Zi /W4 /WX- /sdl /O2 /Oi /Oy- /GL /D _MBCS /Gm- /EHsc /MDd /GS /Gy /fp:fast /Zc:wchar_t /Zc:forScope /Fo"RELEASE\\" /Fd"RELEASE\VC120.PDB" /Gd /TP /analyze- C:\USERS\FORES_000\DOCUMENTS\VISUAL STUDIO 2013\PROJECTS\DRACENGINE\DRACENGINE\GAMEOBJECT.CPP
^C:\USERS\FORES_000\DOCUMENTS\VISUAL STUDIO 2013\PROJECTS\DRACENGINE\DRACENGINE\BATCH.CPP
/c /I"C:\Users\fores_000\Documents\Visual Studio 2013\Projects\dracengine\include" /Zi /W4 /WX- /sdl /O2 /Oi /Oy- /GL /D _MBCS /Gm- /EHsc /MDd /GS /Gy /fp:fast /Zc:wchar_t /Zc:forScope /Fo"RELEASE\\" /Fd"RELEASE\VC120.PDB" /Gd /TP /analyze- C:\USERS\FORES_000\DOCUMENTS\VISUAL STUDIO 2013\PROJECTS\DRACENGINE\DRACENGINE\BATCH.CPP
^C:\USERS\FORES_000\DOCUMENTS\VISUAL STUDIO 2013\PROJECTS\DRACENGINE\DRACENGINE\MAT4.CPP
/c /I"C:\Users\fores_000\Documents\Visual Studio 2013\Projects\dracengine\include" /Zi /W4 /WX- /sdl /O2 /Oi /Oy- /GL /D _MBCS /Gm- /EHsc /MDd /GS /Gy /fp:fast /Zc:wchar_t /Zc:forScope /Fo"RELEASE\\" /Fd"RELEASE\VC120.PDB" /Gd /TP /analyze- C:\USERS\FORES_000\DOCUMENTS\VISUAL STUDIO 2013\PROJECTS\DRACENGINE\DRACENGINE\MAT4.CPP
^C:\USERS\FORES_000\DOCUMENTS\VISUAL STUDIO 2013\PROJECTS\DRACENGINE\DRACENGINE\SHADER.CPP
/c /I"C:\Users\fores_000\Documents\Visual Studio 2013\Projects\dracengine\include" /Zi /W4 /WX- /sdl /O2 /Oi /Oy- /GL /D _MBCS /Gm- /EHsc /MDd /GS /Gy /fp:fast /Zc:wchar_t /Zc:forScope /Fo"RELEASE\\" /Fd"RELEASE\VC120.PDB" /Gd /TP /analyze- C:\USERS\FORES_000\DOCUMENTS\VISUAL STUDIO 2013\PROJECTS\DRACENGINE\DRACENGINE\SHADER.CPP
^C:\USERS\FORES_000\DOCUMENTS\VISUAL STUDIO 2013\PROJECTS\DRACENGINE\DRACENGINE\SHAPEBATCH.CPP
/c /I"C:\Users\fores_000\Documents\Visual Studio 2013\Projects\dracengine\include" /Zi /W4 /WX- /sdl /O2 /Oi /Oy- /GL /D _MBCS /Gm- /EHsc /MDd /GS /Gy /fp:fast /Zc:wchar_t /Zc:forScope /Fo"RELEASE\\" /Fd"RELEASE\VC120.PDB" /Gd /TP /analyze- C:\USERS\FORES_000\DOCUMENTS\VISUAL STUDIO 2013\PROJECTS\DRACENGINE\DRACENGINE\SHAPEBATCH.CPP
^C:\USERS\FORES_000\DOCUMENTS\VISUAL STUDIO 2013\PROJECTS\DRACENGINE\DRACENGINE\SPRITEBATCH.CPP
/c /I"C:\Users\fores_000\Documents\Visual Studio 2013\Projects\dracengine\include" /Zi /W4 /WX- /sdl /O2 /Oi /Oy- /GL /D _MBCS /Gm- /EHsc /MDd /GS /Gy /fp:fast /Zc:wchar_t /Zc:forScope /Fo"RELEASE\\" /Fd"RELEASE\VC120.PDB" /Gd /TP /analyze- C:\USERS\FORES_000\DOCUMENTS\VISUAL STUDIO 2013\PROJECTS\DRACENGINE\DRACENGINE\SPRITEBATCH.CPP
^C:\USERS\FORES_000\DOCUMENTS\VISUAL STUDIO 2013\PROJECTS\DRACENGINE\DRACENGINE\TRANSFORMCOMPONENT.CPP
/c /I"C:\Users\fores_000\Documents\Visual Studio 2013\Projects\dracengine\include" /Zi /W4 /WX- /sdl /O2 /Oi /Oy- /GL /D _MBCS /Gm- /EHsc /MDd /GS /Gy /fp:fast /Zc:wchar_t /Zc:forScope /Fo"RELEASE\\" /Fd"RELEASE\VC120.PDB" /Gd /TP /analyze- C:\USERS\FORES_000\DOCUMENTS\VISUAL STUDIO 2013\PROJECTS\DRACENGINE\DRACENGINE\TRANSFORMCOMPONENT.CPP
^C:\USERS\FORES_000\DOCUMENTS\VISUAL STUDIO 2013\PROJECTS\DRACENGINE\DRACENGINE\MESH.CPP
/c /I"C:\Users\fores_000\Documents\Visual Studio 2013\Projects\dracengine\include" /Zi /W4 /WX- /sdl /O2 /Oi /Oy- /GL /D _MBCS /Gm- /EHsc /MDd /GS /Gy /fp:fast /Zc:wchar_t /Zc:forScope /Fo"RELEASE\\" /Fd"RELEASE\VC120.PDB" /Gd /TP /analyze- C:\USERS\FORES_000\DOCUMENTS\VISUAL STUDIO 2013\PROJECTS\DRACENGINE\DRACENGINE\MESH.CPP
^C:\USERS\FORES_000\DOCUMENTS\VISUAL STUDIO 2013\PROJECTS\DRACENGINE\DRACENGINE\MESHCOMPONENT.CPP
/c /I"C:\Users\fores_000\Documents\Visual Studio 2013\Projects\dracengine\include" /Zi /W4 /WX- /sdl /O2 /Oi /Oy- /GL /D _MBCS /Gm- /EHsc /MDd /GS /Gy /fp:fast /Zc:wchar_t /Zc:forScope /Fo"RELEASE\\" /Fd"RELEASE\VC120.PDB" /Gd /TP /analyze- C:\USERS\FORES_000\DOCUMENTS\VISUAL STUDIO 2013\PROJECTS\DRACENGINE\DRACENGINE\MESHCOMPONENT.CPP
^C:\USERS\FORES_000\DOCUMENTS\VISUAL STUDIO 2013\PROJECTS\DRACENGINE\DRACENGINE\MAIN.CPP
/c /I"C:\Users\fores_000\Documents\Visual Studio 2013\Projects\dracengine\include" /Zi /W4 /WX- /sdl /O2 /Oi /Oy- /GL /D _MBCS /Gm- /EHsc /MDd /GS /Gy /fp:fast /Zc:wchar_t /Zc:forScope /Fo"RELEASE\\" /Fd"RELEASE\VC120.PDB" /Gd /TP /analyze- C:\USERS\FORES_000\DOCUMENTS\VISUAL STUDIO 2013\PROJECTS\DRACENGINE\DRACENGINE\MAIN.CPP
^C:\USERS\FORES_000\DESKTOP\DEVELOPMENT\DRACENGINE\DRACENGINE\COLOR.CPP
/c /IC:\Users\fores_000\Desktop\Development\dracengine\include /Zi /W4 /WX- /sdl /O2 /Oi /Oy- /GL /D _MBCS /Gm- /EHsc /MDd /GS /Gy /fp:fast /Zc:wchar_t /Zc:forScope /Fo"RELEASE\\" /Fd"RELEASE\VC120.PDB" /Gd /TP /analyze- C:\USERS\FORES_000\DESKTOP\DEVELOPMENT\DRACENGINE\DRACENGINE\COLOR.CPP
^C:\USERS\FORES_000\DESKTOP\DEVELOPMENT\DRACENGINE\DRACENGINE\COMPOSITERESOURCE.CPP
/c /IC:\Users\fores_000\Desktop\Development\dracengine\include /Zi /W4 /WX- /sdl /O2 /Oi /Oy- /GL /D _MBCS /Gm- /EHsc /MDd /GS /Gy /fp:fast /Zc:wchar_t /Zc:forScope /Fo"RELEASE\\" /Fd"RELEASE\VC120.PDB" /Gd /TP /analyze- C:\USERS\FORES_000\DESKTOP\DEVELOPMENT\DRACENGINE\DRACENGINE\COMPOSITERESOURCE.CPP
^C:\USERS\FORES_000\DESKTOP\DEVELOPMENT\DRACENGINE\DRACENGINE\DMATH.CPP
/c /IC:\Users\fores_000\Desktop\Development\dracengine\include /Zi /W4 /WX- /sdl /O2 /Oi /Oy- /GL /D _MBCS /Gm- /EHsc /MDd /GS /Gy /fp:fast /Zc:wchar_t /Zc:forScope /Fo"RELEASE\\" /Fd"RELEASE\VC120.PDB" /Gd /TP /analyze- C:\USERS\FORES_000\DESKTOP\DEVELOPMENT\DRACENGINE\DRACENGINE\DMATH.CPP
^C:\USERS\FORES_000\DESKTOP\DEVELOPMENT\DRACENGINE\DRACENGINE\OBJINDEX.CPP
/c /IC:\Users\fores_000\Desktop\Development\dracengine\include /Zi /W4 /WX- /sdl /O2 /Oi /Oy- /GL /D _MBCS /Gm- /EHsc /MDd /GS /Gy /fp:fast /Zc:wchar_t /Zc:forScope /Fo"RELEASE\\" /Fd"RELEASE\VC120.PDB" /Gd /TP /analyze- C:\USERS\FORES_000\DESKTOP\DEVELOPMENT\DRACENGINE\DRACENGINE\OBJINDEX.CPP
^C:\USERS\FORES_000\DESKTOP\DEVELOPMENT\DRACENGINE\DRACENGINE\OBJRESOURCE.CPP
/c /IC:\Users\fores_000\Desktop\Development\dracengine\include /Zi /W4 /WX- /sdl /O2 /Oi /Oy- /GL /D _MBCS /Gm- /EHsc /MDd /GS /Gy /fp:fast /Zc:wchar_t /Zc:forScope /Fo"RELEASE\\" /Fd"RELEASE\VC120.PDB" /Gd /TP /analyze- C:\USERS\FORES_000\DESKTOP\DEVELOPMENT\DRACENGINE\DRACENGINE\OBJRESOURCE.CPP
^C:\USERS\FORES_000\DESKTOP\DEVELOPMENT\DRACENGINE\DRACENGINE\RESOURCE.CPP
/c /IC:\Users\fores_000\Desktop\Development\dracengine\include /Zi /W4 /WX- /sdl /O2 /Oi /Oy- /GL /D _MBCS /Gm- /EHsc /MDd /GS /Gy /fp:fast /Zc:wchar_t /Zc:forScope /Fo"RELEASE\\" /Fd"RELEASE\VC120.PDB" /Gd /TP /analyze- C:\USERS\FORES_000\DESKTOP\DEVELOPMENT\DRACENGINE\DRACENGINE\RESOURCE.CPP
^C:\USERS\FORES_000\DESKTOP\DEVELOPMENT\DRACENGINE\DRACENGINE\SCENE3D.CPP
/c /IC:\Users\fores_000\Desktop\Development\dracengine\include /Zi /W4 /WX- /sdl /O2 /Oi /Oy- /GL /D _MBCS /Gm- /EHsc /MDd /GS /Gy /fp:fast /Zc:wchar_t /Zc:forScope /Fo"RELEASE\\" /Fd"RELEASE\VC120.PDB" /Gd /TP /analyze- C:\USERS\FORES_000\DESKTOP\DEVELOPMENT\DRACENGINE\DRACENGINE\SCENE3D.CPP
^C:\USERS\FORES_000\DESKTOP\DEVELOPMENT\DRACENGINE\DRACENGINE\SCRIPTFUNCTION.CPP
/c /IC:\Users\fores_000\Desktop\Development\dracengine\include /Zi /W4 /WX- /sdl /O2 /Oi /Oy- /GL /D _MBCS /Gm- /EHsc /MDd /GS /Gy /fp:fast /Zc:wchar_t /Zc:forScope /Fo"RELEASE\\" /Fd"RELEASE\VC120.PDB" /Gd /TP /analyze- C:\USERS\FORES_000\DESKTOP\DEVELOPMENT\DRACENGINE\DRACENGINE\SCRIPTFUNCTION.CPP
^C:\USERS\FORES_000\DESKTOP\DEVELOPMENT\DRACENGINE\DRACENGINE\SCRIPTMODULE.CPP
/c /IC:\Users\fores_000\Desktop\Development\dracengine\include /Zi /W4 /WX- /sdl /O2 /Oi /Oy- /GL /D _MBCS /Gm- /EHsc /MDd /GS /Gy /fp:fast /Zc:wchar_t /Zc:forScope /Fo"RELEASE\\" /Fd"RELEASE\VC120.PDB" /Gd /TP /analyze- C:\USERS\FORES_000\DESKTOP\DEVELOPMENT\DRACENGINE\DRACENGINE\SCRIPTMODULE.CPP
^C:\USERS\FORES_000\DESKTOP\DEVELOPMENT\DRACENGINE\DRACENGINE\SCRIPTRESOURCE.CPP
/c /IC:\Users\fores_000\Desktop\Development\dracengine\include /Zi /W4 /WX- /sdl /O2 /Oi /Oy- /GL /D _MBCS /Gm- /EHsc /MDd /GS /Gy /fp:fast /Zc:wchar_t /Zc:forScope /Fo"RELEASE\\" /Fd"RELEASE\VC120.PDB" /Gd /TP /analyze- C:\USERS\FORES_000\DESKTOP\DEVELOPMENT\DRACENGINE\DRACENGINE\SCRIPTRESOURCE.CPP
^C:\USERS\FORES_000\DESKTOP\DEVELOPMENT\DRACENGINE\DRACENGINE\SHADERRESOURCE.CPP
/c /IC:\Users\fores_000\Desktop\Development\dracengine\include /Zi /W4 /WX- /sdl /O2 /Oi /Oy- /GL /D _MBCS /Gm- /EHsc /MDd /GS /Gy /fp:fast /Zc:wchar_t /Zc:forScope /Fo"RELEASE\\" /Fd"RELEASE\VC120.PDB" /Gd /TP /analyze- C:\USERS\FORES_000\DESKTOP\DEVELOPMENT\DRACENGINE\DRACENGINE\SHADERRESOURCE.CPP
^C:\USERS\FORES_000\DESKTOP\DEVELOPMENT\DRACENGINE\DRACENGINE\SINGLENODE.CPP
/c /IC:\Users\fores_000\Desktop\Development\dracengine\include /Zi /W4 /WX- /sdl /O2 /Oi /Oy- /GL /D _MBCS /Gm- /EHsc /MDd /GS /Gy /fp:fast /Zc:wchar_t /Zc:forScope /Fo"RELEASE\\" /Fd"RELEASE\VC120.PDB" /Gd /TP /analyze- C:\USERS\FORES_000\DESKTOP\DEVELOPMENT\DRACENGINE\DRACENGINE\SINGLENODE.CPP
^C:\USERS\FORES_000\DESKTOP\DEVELOPMENT\DRACENGINE\DRACENGINE\SINGLERESOURCE.CPP
/c /IC:\Users\fores_000\Desktop\Development\dracengine\include /Zi /W4 /WX- /sdl /O2 /Oi /Oy- /GL /D _MBCS /Gm- /EHsc /MDd /GS /Gy /fp:fast /Zc:wchar_t /Zc:forScope /Fo"RELEASE\\" /Fd"RELEASE\VC120.PDB" /Gd /TP /analyze- C:\USERS\FORES_000\DESKTOP\DEVELOPMENT\DRACENGINE\DRACENGINE\SINGLERESOURCE.CPP
^C:\USERS\FORES_000\DESKTOP\DEVELOPMENT\DRACENGINE\DRACENGINE\SUTILS.CPP
/c /IC:\Users\fores_000\Desktop\Development\dracengine\include /Zi /W4 /WX- /sdl /O2 /Oi /Oy- /GL /D _MBCS /Gm- /EHsc /MDd /GS /Gy /fp:fast /Zc:wchar_t /Zc:forScope /Fo"RELEASE\\" /Fd"RELEASE\VC120.PDB" /Gd /TP /analyze- C:\USERS\FORES_000\DESKTOP\DEVELOPMENT\DRACENGINE\DRACENGINE\SUTILS.CPP
^C:\USERS\FORES_000\DESKTOP\DEVELOPMENT\DRACENGINE\DRACENGINE\TEXTURERESOURCE.CPP
/c /IC:\Users\fores_000\Desktop\Development\dracengine\include /Zi /W4 /WX- /sdl /O2 /Oi /Oy- /GL /D _MBCS /Gm- /EHsc /MDd /GS /Gy /fp:fast /Zc:wchar_t /Zc:forScope /Fo"RELEASE\\" /Fd"RELEASE\VC120.PDB" /Gd /TP /analyze- C:\USERS\FORES_000\DESKTOP\DEVELOPMENT\DRACENGINE\DRACENGINE\TEXTURERESOURCE.CPP
^C:\USERS\FORES_000\DESKTOP\DEVELOPMENT\DRACENGINE\DRACENGINE\VEC3.CPP
/c /IC:\Users\fores_000\Desktop\Development\dracengine\include /Zi /W4 /WX- /sdl /O2 /Oi /Oy- /GL /D _MBCS /Gm- /EHsc /MDd /GS /Gy /fp:fast /Zc:wchar_t /Zc:forScope /Fo"RELEASE\\" /Fd"RELEASE\VC120.PDB" /Gd /TP /analyze- C:\USERS\FORES_000\DESKTOP\DEVELOPMENT\DRACENGINE\DRACENGINE\VEC3.CPP
^C:\USERS\FORES_000\DESKTOP\DEVELOPMENT\DRACENGINE\DRACENGINE\VEC2.CPP
/c /IC:\Users\fores_000\Desktop\Development\dracengine\include /Zi /W4 /WX- /sdl /O2 /Oi /Oy- /GL /D _MBCS /Gm- /EHsc /MDd /GS /Gy /fp:fast /Zc:wchar_t /Zc:forScope /Fo"RELEASE\\" /Fd"RELEASE\VC120.PDB" /Gd /TP /analyze- C:\USERS\FORES_000\DESKTOP\DEVELOPMENT\DRACENGINE\DRACENGINE\VEC2.CPP
^C:\USERS\FORES_000\DESKTOP\DEVELOPMENT\DRACENGINE\DRACENGINE\TEXTRESOURCE.CPP
/c /IC:\Users\fores_000\Desktop\Development\dracengine\include /Zi /W4 /WX- /sdl /O2 /Oi /Oy- /GL /D _MBCS /Gm- /EHsc /MDd /GS /Gy /fp:fast /Zc:wchar_t /Zc:forScope /Fo"RELEASE\\" /Fd"RELEASE\VC120.PDB" /Gd /TP /analyze- C:\USERS\FORES_000\DESKTOP\DEVELOPMENT\DRACENGINE\DRACENGINE\TEXTRESOURCE.CPP
^C:\USERS\FORES_000\DESKTOP\DEVELOPMENT\DRACENGINE\DRACENGINE\VERTEX3.CPP
/c /IC:\Users\fores_000\Desktop\Development\dracengine\include /Zi /W4 /WX- /sdl /O2 /Oi /Oy- /GL /D _MBCS /Gm- /EHsc /MDd /GS /Gy /fp:fast /Zc:wchar_t /Zc:forScope /Fo"RELEASE\\" /Fd"RELEASE\VC120.PDB" /Gd /TP /analyze- C:\USERS\FORES_000\DESKTOP\DEVELOPMENT\DRACENGINE\DRACENGINE\VERTEX3.CPP
^C:\USERS\FORES_000\DESKTOP\DEVELOPMENT\DRACENGINE\DRACENGINE\TRANSFORMCOMPONENT.CPP
/c /IC:\Users\fores_000\Desktop\Development\dracengine\include /Zi /W4 /WX- /sdl /O2 /Oi /Oy- /GL /D _MBCS /Gm- /EHsc /MDd /GS /Gy /fp:fast /Zc:wchar_t /Zc:forScope /Fo"RELEASE\\" /Fd"RELEASE\VC120.PDB" /Gd /TP /analyze- C:\USERS\FORES_000\DESKTOP\DEVELOPMENT\DRACENGINE\DRACENGINE\TRANSFORMCOMPONENT.CPP
^C:\USERS\FORES_000\DESKTOP\DEVELOPMENT\DRACENGINE\DRACENGINE\GAMECOMPONENT.CPP
/c /IC:\Users\fores_000\Desktop\Development\dracengine\include /Zi /W4 /WX- /sdl /O2 /Oi /Oy- /GL /D _MBCS /Gm- /EHsc /MDd /GS /Gy /fp:fast /Zc:wchar_t /Zc:forScope /Fo"RELEASE\\" /Fd"RELEASE\VC120.PDB" /Gd /TP /analyze- C:\USERS\FORES_000\DESKTOP\DEVELOPMENT\DRACENGINE\DRACENGINE\GAMECOMPONENT.CPP
^C:\USERS\FORES_000\DESKTOP\DEVELOPMENT\DRACENGINE\DRACENGINE\TRANSFORM.CPP
/c /IC:\Users\fores_000\Desktop\Development\dracengine\include /Zi /W4 /WX- /sdl /O2 /Oi /Oy- /GL /D _MBCS /Gm- /EHsc /MDd /GS /Gy /fp:fast /Zc:wchar_t /Zc:forScope /Fo"RELEASE\\" /Fd"RELEASE\VC120.PDB" /Gd /TP /analyze- C:\USERS\FORES_000\DESKTOP\DEVELOPMENT\DRACENGINE\DRACENGINE\TRANSFORM.CPP
^C:\USERS\FORES_000\DESKTOP\DEVELOPMENT\DRACENGINE\DRACENGINE\GAMEOBJECT.CPP
/c /IC:\Users\fores_000\Desktop\Development\dracengine\include /Zi /W4 /WX- /sdl /O2 /Oi /Oy- /GL /D _MBCS /Gm- /EHsc /MDd /GS /Gy /fp:fast /Zc:wchar_t /Zc:forScope /Fo"RELEASE\\" /Fd"RELEASE\VC120.PDB" /Gd /TP /analyze- C:\USERS\FORES_000\DESKTOP\DEVELOPMENT\DRACENGINE\DRACENGINE\GAMEOBJECT.CPP
^C:\USERS\FORES_000\DESKTOP\DEVELOPMENT\DRACENGINE\DRACENGINE\MAT4.CPP
/c /IC:\Users\fores_000\Desktop\Development\dracengine\include /Zi /W4 /WX- /sdl /O2 /Oi /Oy- /GL /D _MBCS /Gm- /EHsc /MDd /GS /Gy /fp:fast /Zc:wchar_t /Zc:forScope /Fo"RELEASE\\" /Fd"RELEASE\VC120.PDB" /Gd /TP /analyze- C:\USERS\FORES_000\DESKTOP\DEVELOPMENT\DRACENGINE\DRACENGINE\MAT4.CPP
^C:\USERS\FORES_000\DESKTOP\DEVELOPMENT\DRACENGINE\DRACENGINE\INDEXBUFFER.CPP
/c /IC:\Users\fores_000\Desktop\Development\dracengine\include /Zi /W4 /WX- /sdl /O2 /Oi /Oy- /GL /D _MBCS /Gm- /EHsc /MDd /GS /Gy /fp:fast /Zc:wchar_t /Zc:forScope /Fo"RELEASE\\" /Fd"RELEASE\VC120.PDB" /Gd /TP /analyze- C:\USERS\FORES_000\DESKTOP\DEVELOPMENT\DRACENGINE\DRACENGINE\INDEXBUFFER.CPP
^C:\USERS\FORES_000\DESKTOP\DEVELOPMENT\DRACENGINE\DRACENGINE\CORE.CPP
/c /IC:\Users\fores_000\Desktop\Development\dracengine\include /Zi /W4 /WX- /sdl /O2 /Oi /Oy- /GL /D _MBCS /Gm- /EHsc /MDd /GS /Gy /fp:fast /Zc:wchar_t /Zc:forScope /Fo"RELEASE\\" /Fd"RELEASE\VC120.PDB" /Gd /TP /analyze- C:\USERS\FORES_000\DESKTOP\DEVELOPMENT\DRACENGINE\DRACENGINE\CORE.CPP
^C:\USERS\FORES_000\DESKTOP\DEVELOPMENT\DRACENGINE\DRACENGINE\WINDOWINFO.CPP
/c /IC:\Users\fores_000\Desktop\Development\dracengine\include /Zi /W4 /WX- /sdl /O2 /Oi /Oy- /GL /D _MBCS /Gm- /EHsc /MDd /GS /Gy /fp:fast /Zc:wchar_t /Zc:forScope /Fo"RELEASE\\" /Fd"RELEASE\VC120.PDB" /Gd /TP /analyze- C:\USERS\FORES_000\DESKTOP\DEVELOPMENT\DRACENGINE\DRACENGINE\WINDOWINFO.CPP
^C:\USERS\FORES_000\DESKTOP\DEVELOPMENT\DRACENGINE\DRACENGINE\SCRIPT.CPP
/c /IC:\Users\fores_000\Desktop\Development\dracengine\include /Zi /W4 /WX- /sdl /O2 /Oi /Oy- /GL /D _MBCS /Gm- /EHsc /MDd /GS /Gy /fp:fast /Zc:wchar_t /Zc:forScope /Fo"RELEASE\\" /Fd"RELEASE\VC120.PDB" /Gd /TP /analyze- C:\USERS\FORES_000\DESKTOP\DEVELOPMENT\DRACENGINE\DRACENGINE\SCRIPT.CPP
^C:\USERS\FORES_000\DESKTOP\DEVELOPMENT\DRACENGINE\DRACENGINE\ECONFIG.CPP
/c /IC:\Users\fores_000\Desktop\Development\dracengine\include /Zi /W4 /WX- /sdl /O2 /Oi /Oy- /GL /D _MBCS /Gm- /EHsc /MDd /GS /Gy /fp:fast /Zc:wchar_t /Zc:forScope /Fo"RELEASE\\" /Fd"RELEASE\VC120.PDB" /Gd /TP /analyze- C:\USERS\FORES_000\DESKTOP\DEVELOPMENT\DRACENGINE\DRACENGINE\ECONFIG.CPP
^C:\USERS\FORES_000\DESKTOP\DEVELOPMENT\DRACENGINE\DRACENGINE\INPUT.CPP
/c /IC:\Users\fores_000\Desktop\Development\dracengine\include /Zi /W4 /WX- /sdl /O2 /Oi /Oy- /GL /D _MBCS /Gm- /EHsc /MDd /GS /Gy /fp:fast /Zc:wchar_t /Zc:forScope /Fo"RELEASE\\" /Fd"RELEASE\VC120.PDB" /Gd /TP /analyze- C:\USERS\FORES_000\DESKTOP\DEVELOPMENT\DRACENGINE\DRACENGINE\INPUT.CPP
^C:\USERS\FORES_000\DESKTOP\DEVELOPMENT\DRACENGINE\DRACENGINE\RESOURCEMANAGER.CPP
/c /IC:\Users\fores_000\Desktop\Development\dracengine\include /Zi /W4 /WX- /sdl /O2 /Oi /Oy- /GL /D _MBCS /Gm- /EHsc /MDd /GS /Gy /fp:fast /Zc:wchar_t /Zc:forScope /Fo"RELEASE\\" /Fd"RELEASE\VC120.PDB" /Gd /TP /analyze- C:\USERS\FORES_000\DESKTOP\DEVELOPMENT\DRACENGINE\DRACENGINE\RESOURCEMANAGER.CPP
^C:\USERS\FORES_000\DESKTOP\DEVELOPMENT\DRACENGINE\DRACENGINE\SDLSYS.CPP
/c /IC:\Users\fores_000\Desktop\Development\dracengine\include /Zi /W4 /WX- /sdl /O2 /Oi /Oy- /GL /D _MBCS /Gm- /EHsc /MDd /GS /Gy /fp:fast /Zc:wchar_t /Zc:forScope /Fo"RELEASE\\" /Fd"RELEASE\VC120.PDB" /Gd /TP /analyze- C:\USERS\FORES_000\DESKTOP\DEVELOPMENT\DRACENGINE\DRACENGINE\SDLSYS.CPP
^C:\USERS\FORES_000\DESKTOP\DEVELOPMENT\DRACENGINE\DRACENGINE\SUBSYSTEM.CPP
/c /IC:\Users\fores_000\Desktop\Development\dracengine\include /Zi /W4 /WX- /sdl /O2 /Oi /Oy- /GL /D _MBCS /Gm- /EHsc /MDd /GS /Gy /fp:fast /Zc:wchar_t /Zc:forScope /Fo"RELEASE\\" /Fd"RELEASE\VC120.PDB" /Gd /TP /analyze- C:\USERS\FORES_000\DESKTOP\DEVELOPMENT\DRACENGINE\DRACENGINE\SUBSYSTEM.CPP
^C:\USERS\FORES_000\DESKTOP\DEVELOPMENT\DRACENGINE\DRACENGINE\SIMULATION.CPP
/c /IC:\Users\fores_000\Desktop\Development\dracengine\include /Zi /W4 /WX- /sdl /O2 /Oi /Oy- /GL /D _MBCS /Gm- /EHsc /MDd /GS /Gy /fp:fast /Zc:wchar_t /Zc:forScope /Fo"RELEASE\\" /Fd"RELEASE\VC120.PDB" /Gd /TP /analyze- C:\USERS\FORES_000\DESKTOP\DEVELOPMENT\DRACENGINE\DRACENGINE\SIMULATION.CPP
^C:\USERS\FORES_000\DESKTOP\DEVELOPMENT\DRACENGINE\DRACENGINE\BASEGAME.CPP
/c /IC:\Users\fores_000\Desktop\Development\dracengine\include /Zi /W4 /WX- /sdl /O2 /Oi /Oy- /GL /D _MBCS /Gm- /EHsc /MDd /GS /Gy /fp:fast /Zc:wchar_t /Zc:forScope /Fo"RELEASE\\" /Fd"RELEASE\VC120.PDB" /Gd /TP /analyze- C:\USERS\FORES_000\DESKTOP\DEVELOPMENT\DRACENGINE\DRACENGINE\BASEGAME.CPP
^C:\USERS\FORES_000\DESKTOP\DEVELOPMENT\DRACENGINE\DRACENGINE\CAMERACOMPONENT.CPP
/c /IC:\Users\fores_000\Desktop\Development\dracengine\include /Zi /W4 /WX- /sdl /O2 /Oi /Oy- /GL /D _MBCS /Gm- /EHsc /MDd /GS /Gy /fp:fast /Zc:wchar_t /Zc:forScope /Fo"RELEASE\\" /Fd"RELEASE\VC120.PDB" /Gd /TP /analyze- C:\USERS\FORES_000\DESKTOP\DEVELOPMENT\DRACENGINE\DRACENGINE\CAMERACOMPONENT.CPP
^C:\USERS\FORES_000\DESKTOP\DEVELOPMENT\DRACENGINE\DRACENGINE\ENGINE.CPP
/c /IC:\Users\fores_000\Desktop\Development\dracengine\include /Zi /W4 /WX- /sdl /O2 /Oi /Oy- /GL /D _MBCS /Gm- /EHsc /MDd /GS /Gy /fp:fast /Zc:wchar_t /Zc:forScope /Fo"RELEASE\\" /Fd"RELEASE\VC120.PDB" /Gd /TP /analyze- C:\USERS\FORES_000\DESKTOP\DEVELOPMENT\DRACENGINE\DRACENGINE\ENGINE.CPP
^C:\USERS\FORES_000\DESKTOP\DEVELOPMENT\DRACENGINE\DRACENGINE\FREELOOKCOMPONENT.CPP
/c /IC:\Users\fores_000\Desktop\Development\dracengine\include /Zi /W4 /WX- /sdl /O2 /Oi /Oy- /GL /D _MBCS /Gm- /EHsc /MDd /GS /Gy /fp:fast /Zc:wchar_t /Zc:forScope /Fo"RELEASE\\" /Fd"RELEASE\VC120.PDB" /Gd /TP /analyze- C:\USERS\FORES_000\DESKTOP\DEVELOPMENT\DRACENGINE\DRACENGINE\FREELOOKCOMPONENT.CPP
^C:\USERS\FORES_000\DESKTOP\DEVELOPMENT\DRACENGINE\DRACENGINE\WINDOW.CPP
/c /IC:\Users\fores_000\Desktop\Development\dracengine\include /Zi /W4 /WX- /sdl /O2 /Oi /Oy- /GL /D _MBCS /Gm- /EHsc /MDd /GS /Gy /fp:fast /Zc:wchar_t /Zc:forScope /Fo"RELEASE\\" /Fd"RELEASE\VC120.PDB" /Gd /TP /analyze- C:\USERS\FORES_000\DESKTOP\DEVELOPMENT\DRACENGINE\DRACENGINE\WINDOW.CPP
^C:\USERS\FORES_000\DESKTOP\DEVELOPMENT\DRACENGINE\DRACENGINE\TEXTURE.CPP
/c /IC:\Users\fores_000\Desktop\Development\dracengine\include /Zi /W4 /WX- /sdl /O2 /Oi /Oy- /GL /D _MBCS /Gm- /EHsc /MDd /GS /Gy /fp:fast /Zc:wchar_t /Zc:forScope /Fo"RELEASE\\" /Fd"RELEASE\VC120.PDB" /Gd /TP /analyze- C:\USERS\FORES_000\DESKTOP\DEVELOPMENT\DRACENGINE\DRACENGINE\TEXTURE.CPP
^C:\USERS\FORES_000\DESKTOP\DEVELOPMENT\DRACENGINE\DRACENGINE\VERTEXATTRIB.CPP
/c /IC:\Users\fores_000\Desktop\Development\dracengine\include /Zi /W4 /WX- /sdl /O2 /Oi /Oy- /GL /D _MBCS /Gm- /EHsc /MDd /GS /Gy /fp:fast /Zc:wchar_t /Zc:forScope /Fo"RELEASE\\" /Fd"RELEASE\VC120.PDB" /Gd /TP /analyze- C:\USERS\FORES_000\DESKTOP\DEVELOPMENT\DRACENGINE\DRACENGINE\VERTEXATTRIB.CPP
^C:\USERS\FORES_000\DESKTOP\DEVELOPMENT\DRACENGINE\DRACENGINE\SHADER.CPP
/c /IC:\Users\fores_000\Desktop\Development\dracengine\include /Zi /W4 /WX- /sdl /O2 /Oi /Oy- /GL /D _MBCS /Gm- /EHsc /MDd /GS /Gy /fp:fast /Zc:wchar_t /Zc:forScope /Fo"RELEASE\\" /Fd"RELEASE\VC120.PDB" /Gd /TP /analyze- C:\USERS\FORES_000\DESKTOP\DEVELOPMENT\DRACENGINE\DRACENGINE\SHADER.CPP
^C:\USERS\FORES_000\DESKTOP\DEVELOPMENT\DRACENGINE\DRACENGINE\MESHCOMPONENT.CPP
/c /IC:\Users\fores_000\Desktop\Development\dracengine\include /Zi /W4 /WX- /sdl /O2 /Oi /Oy- /GL /D _MBCS /Gm- /EHsc /MDd /GS /Gy /fp:fast /Zc:wchar_t /Zc:forScope /Fo"RELEASE\\" /Fd"RELEASE\VC120.PDB" /Gd /TP /analyze- C:\USERS\FORES_000\DESKTOP\DEVELOPMENT\DRACENGINE\DRACENGINE\MESHCOMPONENT.CPP
^C:\USERS\FORES_000\DESKTOP\DEVELOPMENT\DRACENGINE\DRACENGINE\SHAPEBATCH.CPP
/c /IC:\Users\fores_000\Desktop\Development\dracengine\include /Zi /W4 /WX- /sdl /O2 /Oi /Oy- /GL /D _MBCS /Gm- /EHsc /MDd /GS /Gy /fp:fast /Zc:wchar_t /Zc:forScope /Fo"RELEASE\\" /Fd"RELEASE\VC120.PDB" /Gd /TP /analyze- C:\USERS\FORES_000\DESKTOP\DEVELOPMENT\DRACENGINE\DRACENGINE\SHAPEBATCH.CPP
^C:\USERS\FORES_000\DESKTOP\DEVELOPMENT\DRACENGINE\DRACENGINE\SPRITEBATCH.CPP
/c /IC:\Users\fores_000\Desktop\Development\dracengine\include /Zi /W4 /WX- /sdl /O2 /Oi /Oy- /GL /D _MBCS /Gm- /EHsc /MDd /GS /Gy /fp:fast /Zc:wchar_t /Zc:forScope /Fo"RELEASE\\" /Fd"RELEASE\VC120.PDB" /Gd /TP /analyze- C:\USERS\FORES_000\DESKTOP\DEVELOPMENT\DRACENGINE\DRACENGINE\SPRITEBATCH.CPP
^C:\USERS\FORES_000\DESKTOP\DEVELOPMENT\DRACENGINE\DRACENGINE\VERTEXARRAY.CPP
/c /IC:\Users\fores_000\Desktop\Development\dracengine\include /Zi /W4 /WX- /sdl /O2 /Oi /Oy- /GL /D _MBCS /Gm- /EHsc /MDd /GS /Gy /fp:fast /Zc:wchar_t /Zc:forScope /Fo"RELEASE\\" /Fd"RELEASE\VC120.PDB" /Gd /TP /analyze- C:\USERS\FORES_000\DESKTOP\DEVELOPMENT\DRACENGINE\DRACENGINE\VERTEXARRAY.CPP
^C:\USERS\FORES_000\DESKTOP\DEVELOPMENT\DRACENGINE\DRACENGINE\VERTEXBUFFER.CPP
/c /IC:\Users\fores_000\Desktop\Development\dracengine\include /Zi /W4 /WX- /sdl /O2 /Oi /Oy- /GL /D _MBCS /Gm- /EHsc /MDd /GS /Gy /fp:fast /Zc:wchar_t /Zc:forScope /Fo"RELEASE\\" /Fd"RELEASE\VC120.PDB" /Gd /TP /analyze- C:\USERS\FORES_000\DESKTOP\DEVELOPMENT\DRACENGINE\DRACENGINE\VERTEXBUFFER.CPP
^C:\USERS\FORES_000\DESKTOP\DEVELOPMENT\DRACENGINE\DRACENGINE\BATCH.CPP
/c /IC:\Users\fores_000\Desktop\Development\dracengine\include /Zi /W4 /WX- /sdl /O2 /Oi /Oy- /GL /D _MBCS /Gm- /EHsc /MDd /GS /Gy /fp:fast /Zc:wchar_t /Zc:forScope /Fo"RELEASE\\" /Fd"RELEASE\VC120.PDB" /Gd /TP /analyze- C:\USERS\FORES_000\DESKTOP\DEVELOPMENT\DRACENGINE\DRACENGINE\BATCH.CPP
^C:\USERS\FORES_000\DESKTOP\DEVELOPMENT\DRACENGINE\DRACENGINE\MESH.CPP
/c /IC:\Users\fores_000\Desktop\Development\dracengine\include /Zi /W4 /WX- /sdl /O2 /Oi /Oy- /GL /D _MBCS /Gm- /EHsc /MDd /GS /Gy /fp:fast /Zc:wchar_t /Zc:forScope /Fo"RELEASE\\" /Fd"RELEASE\VC120.PDB" /Gd /TP /analyze- C:\USERS\FORES_000\DESKTOP\DEVELOPMENT\DRACENGINE\DRACENGINE\MESH.CPP
